ard-manual_selection_TIECVD_scaled,"[0.14678899082568808, 0.024242424242424242, 0.28865979381443296, 0.0, 0.012121212121212121, 0.13402061855670103]"
ard-manual_selection_TIEDVD_scaled,"[0.1559633027522936, 0.048484848484848485, 0.0, 0.045871559633027525, 0.07878787878787878, 0.030927835051546393]"
ard-manual_selection_both,"[0.1559633027522936, 0.024242424242424242, 0.12371134020618557, 0.01834862385321101, 0.03636363636363636, 0.07216494845360824]"
ard-real_cap,"[0.14678899082568808, 0.01818181818181818, 0.020618556701030927, 0.01834862385321101, 0.08484848484848485, 0.020618556701030927]"
gpr-manual_selection_TIECVD_scaled,"[0.1743119266055046, 0.26666666666666666, 0.28865979381443296, 0.05504587155963303, 0.01818181818181818, 0.23711340206185566]"
gpr-manual_selection_TIEDVD_scaled,"[0.1834862385321101, 0.1393939393939394, 0.12371134020618557, 0.009174311926605635, 0.3151515151515151, 0.07216494845360824]"
gpr-manual_selection_both,"[0.2018348623853211, 0.10303030303030303, 0.20618556701030927, 0.01834862385321101, 0.024242424242424242, 0.15463917525773196]"
gpr-real_cap,"[0.14678899082568808, 0.12121212121212122, 0.10309278350515463, 0.009174311926605505, 0.012121212121212121, 0.10309278350515463]"
emd-arima-manual_selection_TIECVD_scaled,"[0.1834862385321101, 0.2727272727272727, 0.25773195876288657, 0.06422018348623854, 0.18787878787878787, 0.061855670103092786]"
emd-arima-manual_selection_TIEDVD_scaled,"[0.14678899082568808, 0.10303030303030303, 0.061855670103092786, 0.06422018348623854, 0.10303030303030303, 0.010309278350515464]"
emd-arima-manual_selection_both,"[0.09174311926605505, 0.17575757575757575, 0.14432989690721648, 0.0, 0.14545454545454545, 0.10309278350515463]"
emd-arima-real_cap,"[0.10091743119266056, 0.2787878787878788, 0.020618556701030927, 0.08256880733944955, 0.12121212121212122, 0.010309278350515464]"
arima-manual_selection_TIECVD_scaled,"[0.22018348623853212, 0.3878787878787879, 0.23711340206185566, 0.09174311926605505, 0.048484848484848485, 0.12371134020618557]"
arima-manual_selection_TIEDVD_scaled,"[0.1651376146788991, 0.1696969696969697, 0.020618556701030927, 0.045871559633027525, 0.07272727272727272, 0.05154639175257732]"
arima-manual_selection_both,"[0.1743119266055046, 0.24242424242424243, 0.08247422680412371, 0.01834862385321101, 0.024242424242424242, 0.061855670103092786]"
arima-real_cap,"[0.1651376146788991, 0.26666666666666666, 0.020618556701030927, 0.009174311926605505, 0.2787878787878788, 0.0]"
svr-rbf-manual_selection_TIECVD_scaled,"[0.1743119266055046, 0.24848484848484848, 0.38144329896907214, 0.08256880733944955, 0.2909090909090909, 0.020618556701030927]"
svr-rbf-manual_selection_TIEDVD_scaled,"[0.1651376146788991, 0.17575757575757575, 0.0, 0.01834862385321101, 0.3454545454545455, 0.010309278350515464]"
svr-rbf-manual_selection_both,"[0.1834862385321101, 0.2787878787878788, 0.20618556701030927, 0.05504587155963303, 0.09090909090909091, 0.041237113402061855]"
svr-rbf-real_cap,"[0.1743119266055046, 0.2545454545454545, 0.1134020618556701, 0.045871559633027525, 0.21818181818181817, 0.010309278350515464]"
